// Jest Snapshot v1, https://goo.gl/fbAQLP

exports[`Help Page Help page renders correctly 1`] = `
<div>
  <div
    class="makeStyles-root-1"
  >
    <div
      class="makeStyles-topButtons-4"
    >
      <a
        aria-label="Telegram"
        class="MuiButtonBase-root makeStyles-fabLabel-3 MuiFab-root MuiFab-extended MuiFab-sizeLarge MuiFab-secondary makeStyles-fabButton-5 css-k4d6yz-MuiButtonBase-root-MuiFab-root"
        href="https://t.me/SmartPy_io"
        tabindex="0"
        target="_blank"
      >
        <svg
          aria-hidden="true"
          class="MuiSvgIcon-root MuiSvgIcon-colorPrimary MuiSvgIcon-fontSizeMedium makeStyles-extendedIcon-2 css-ci5apu-MuiSvgIcon-root"
          data-testid="TelegramIcon"
          focusable="false"
          viewBox="0 0 24 24"
        >
          <path
            d="M9.78 18.65l.28-4.23 7.68-6.92c.34-.31-.07-.46-.52-.19L7.74 13.3 3.64 12c-.88-.25-.89-.86.2-1.3l15.97-6.16c.73-.33 1.43.18 1.15 1.3l-2.72 12.81c-.19.91-.74 1.13-1.5.71L12.6 16.3l-1.99 1.93c-.23.23-.42.42-.83.42z"
          />
        </svg>
        Telegram
        <span
          class="MuiTouchRipple-root css-8je8zh-MuiTouchRipple-root"
        />
      </a>
      <a
        aria-label="Tezos Stack Exchange"
        class="MuiButtonBase-root makeStyles-fabLabel-3 MuiFab-root MuiFab-extended MuiFab-sizeLarge MuiFab-secondary makeStyles-fabButton-5 css-k4d6yz-MuiButtonBase-root-MuiFab-root"
        href="https://tezos.stackexchange.com/questions/ask?tags=smartpy"
        tabindex="0"
        target="_blank"
      >
        <svg
          aria-hidden="true"
          class="MuiSvgIcon-root MuiSvgIcon-colorPrimary MuiSvgIcon-fontSizeMedium makeStyles-extendedIcon-2 css-ci5apu-MuiSvgIcon-root"
          focusable="false"
          height="36"
          viewBox="0 0 16 16"
          width="36"
        >
          <path
            d="M0 3c0-1.1.9-2 2-2h8a2 2 0 012 2H0z"
            fill="#8FD8F7"
          />
          <path
            d="M12 10H0c0 1.1.9 2 2 2h5v3l3-3a2 2 0 002-2z"
            fill="#155397"
          />
          <path
            d="M0 4h12v2H0z"
            fill="#46A2D9"
          />
          <path
            d="M0 7h12v2H0z"
            fill="#2D6DB5"
          />
        </svg>
        Tezos Stack Exchange
        <span
          class="MuiTouchRipple-root css-8je8zh-MuiTouchRipple-root"
        />
      </a>
    </div>
    <hr
      class="MuiDivider-root MuiDivider-fullWidth css-9mgopn-MuiDivider-root"
    />
    <div
      class="makeStyles-root-6"
      id="introduction"
    >
      <h4
        class="MuiTypography-root MuiTypography-h4 makeStyles-title-8 makeStyles-marginBottom-10 css-5lbw0b-MuiTypography-root"
      >
        help.referenceManual
      </h4>
      <p
        class="MuiTypography-root MuiTypography-body1 MuiTypography-gutterBottom makeStyles-description-9 makeStyles-marginBottom-10 css-d3wcwz-MuiTypography-root"
      >
        help.referenceManualSubTitle
        <a
          class="MuiTypography-root MuiTypography-inherit MuiLink-root MuiLink-underlineAlways MuiButtonBase-root MuiChip-root MuiChip-outlined MuiChip-sizeSmall MuiChip-colorDefault MuiChip-clickable MuiChip-clickableColorDefault MuiChip-outlinedDefault css-mzfhvp-MuiTypography-root-MuiLink-root-MuiButtonBase-root-MuiChip-root"
          href="/docs"
          tabindex="0"
          target="_blank"
        >
          <svg
            aria-hidden="true"
            class="MuiSvgIcon-root MuiSvgIcon-fontSizeMedium MuiChip-icon MuiChip-iconSmall MuiChip-iconColorDefault css-i4bv87-MuiSvgIcon-root"
            data-testid="MenuBookIcon"
            focusable="false"
            viewBox="0 0 24 24"
          >
            <path
              d="M21 5c-1.11-.35-2.33-.5-3.5-.5-1.95 0-4.05.4-5.5 1.5-1.45-1.1-3.55-1.5-5.5-1.5S2.45 4.9 1 6v14.65c0 .25.25.5.5.5.1 0 .15-.05.25-.05C3.1 20.45 5.05 20 6.5 20c1.95 0 4.05.4 5.5 1.5 1.35-.85 3.8-1.5 5.5-1.5 1.65 0 3.35.3 4.75 1.05.1.05.15.05.25.05.25 0 .5-.25.5-.5V6c-.6-.45-1.25-.75-2-1zm0 13.5c-1.1-.35-2.3-.5-3.5-.5-1.7 0-4.15.65-5.5 1.5V8c1.35-.85 3.8-1.5 5.5-1.5 1.2 0 2.4.15 3.5.5v11.5z"
            />
            <path
              d="M17.5 10.5c.88 0 1.73.09 2.5.26V9.24c-.79-.15-1.64-.24-2.5-.24-1.7 0-3.24.29-4.5.83v1.66c1.13-.64 2.7-.99 4.5-.99zM13 12.49v1.66c1.13-.64 2.7-.99 4.5-.99.88 0 1.73.09 2.5.26V11.9c-.79-.15-1.64-.24-2.5-.24-1.7 0-3.24.3-4.5.83zm4.5 1.84c-1.7 0-3.24.29-4.5.83v1.66c1.13-.64 2.7-.99 4.5-.99.88 0 1.73.09 2.5.26v-1.52c-.79-.16-1.64-.24-2.5-.24z"
            />
          </svg>
          <span
            class="MuiChip-label MuiChip-labelSmall css-wjsjww-MuiChip-label"
          >
            help.referenceManual
          </span>
          <span
            class="MuiTouchRipple-root css-8je8zh-MuiTouchRipple-root"
          />
        </a>
      </p>
      <a
        class="MuiTypography-root MuiTypography-inherit MuiLink-root MuiLink-underlineAlways MuiButtonBase-root MuiChip-root MuiChip-outlined MuiChip-sizeMedium MuiChip-colorDefault MuiChip-clickable MuiChip-clickableColorDefault MuiChip-outlinedDefault makeStyles-marginBottom-10 css-177y8gn-MuiTypography-root-MuiLink-root-MuiButtonBase-root-MuiChip-root"
        href="/docs/releases"
        tabindex="0"
        target="_blank"
      >
        <svg
          aria-hidden="true"
          class="MuiSvgIcon-root MuiSvgIcon-fontSizeMedium MuiChip-icon MuiChip-iconMedium MuiChip-iconColorDefault css-i4bv87-MuiSvgIcon-root"
          data-testid="LibraryBooksIcon"
          focusable="false"
          viewBox="0 0 24 24"
        >
          <path
            d="M4 6H2v14c0 1.1.9 2 2 2h14v-2H4V6zm16-4H8c-1.1 0-2 .9-2 2v12c0 1.1.9 2 2 2h12c1.1 0 2-.9 2-2V4c0-1.1-.9-2-2-2zm-1 9H9V9h10v2zm-4 4H9v-2h6v2zm4-8H9V5h10v2z"
          />
        </svg>
        <span
          class="MuiChip-label MuiChip-labelMedium css-6od3lo-MuiChip-label"
        >
          help.releases
        </span>
        <span
          class="MuiTouchRipple-root css-8je8zh-MuiTouchRipple-root"
        />
      </a>
      <hr
        class="MuiDivider-root MuiDivider-middle MuiDivider-vertical css-166ji9n-MuiDivider-root"
      />
      <a
        class="MuiTypography-root MuiTypography-inherit MuiLink-root MuiLink-underlineAlways MuiButtonBase-root MuiChip-root MuiChip-outlined MuiChip-sizeMedium MuiChip-colorDefault MuiChip-clickable MuiChip-clickableColorDefault MuiChip-outlinedDefault makeStyles-marginBottom-10 css-177y8gn-MuiTypography-root-MuiLink-root-MuiButtonBase-root-MuiChip-root"
        href="/docs/cli"
        tabindex="0"
        target="_blank"
      >
        <svg
          aria-hidden="true"
          class="MuiSvgIcon-root MuiSvgIcon-fontSizeMedium MuiChip-icon MuiChip-iconMedium MuiChip-iconColorDefault css-i4bv87-MuiSvgIcon-root"
          data-testid="LastPageIcon"
          focusable="false"
          viewBox="0 0 24 24"
        >
          <path
            d="M5.59 7.41 10.18 12l-4.59 4.59L7 18l6-6-6-6zM16 6h2v12h-2z"
          />
        </svg>
        <span
          class="MuiChip-label MuiChip-labelMedium css-6od3lo-MuiChip-label"
        >
          help.installCLI
        </span>
        <span
          class="MuiTouchRipple-root css-8je8zh-MuiTouchRipple-root"
        />
      </a>
      <div
        class="MuiPaper-root MuiPaper-elevation MuiPaper-rounded MuiPaper-elevation1 makeStyles-card-15 makeStyles-marginBottom-16 css-1ps6pg7-MuiPaper-root"
      >
        <hr
          class="MuiDivider-root MuiDivider-fullWidth css-9mgopn-MuiDivider-root"
        />
        <p
          class="MuiTypography-root MuiTypography-body1 MuiTypography-gutterBottom makeStyles-innerDescription-17 css-d3wcwz-MuiTypography-root"
        >
          commonComponents.selectionOfTemplates.title
        </p>
        <hr
          class="MuiDivider-root MuiDivider-fullWidth css-9mgopn-MuiDivider-root"
        />
        <ul
          class="MuiList-root MuiList-padding makeStyles-list-18 css-h4y409-MuiList-root"
        >
          <a
            class="MuiButtonBase-root MuiListItem-root MuiListItem-dense MuiListItem-gutters MuiListItem-padding MuiListItem-divider MuiListItem-button css-1qkmnhx-MuiButtonBase-root-MuiListItem-root"
            href="/ide?template=calculator.py"
            tabindex="0"
          >
            <div
              class="MuiListItemAvatar-root css-1e9lk82-MuiListItemAvatar-root"
            >
              <svg
                class="makeStyles-icon-19"
                height="320"
                viewBox="0 0 250 320"
                width="250"
              >
                <path
                  d="M 50,124 C 16.666667,41.333333 33.333333,82.666667 50,124 Z"
                  fill="#66aacc"
                />
                <path
                  d="M 0,153 V 72 L 125.5,0 252,73 v 54.5 l -72,42.5 -73,-42 19,-11 53,31 53,-31 V 84.5 L 126,22 20,84 v 58 z"
                  fill="#006dcc"
                />
                <path
                  d="m 51,102 74.20465,-43.07113 71.5907,41.14226 L 178.5,111 126,80 51,123 Z"
                  fill="#66aacc"
                />
                <path
                  d="m 252,164 v 81 L 126.5,317 0,244 v -54.5 l 72,-42.5 73,42 -19,11 -53,-31 -53,31 v 32.5 L 126,295 232,233 v -58 z"
                  fill="#006dcc"
                />
                <path
                  d="M 199.79534,215 125.59069,258.07114 54,216.92887 72.29535,206 l 52.49999,31 75,-43 z"
                  fill="#66aacc"
                />
              </svg>
            </div>
            <div
              class="MuiListItemText-root MuiListItemText-dense css-tlelie-MuiListItemText-root"
            >
              <span
                class="MuiTypography-root MuiTypography-body2 MuiListItemText-primary css-et1ao3-MuiTypography-root"
              >
                commonComponents.selectionOfTemplates.calculatorDescription
              </span>
            </div>
            <span
              class="MuiTouchRipple-root css-8je8zh-MuiTouchRipple-root"
            />
          </a>
          <a
            class="MuiButtonBase-root MuiListItem-root MuiListItem-dense MuiListItem-gutters MuiListItem-padding MuiListItem-divider MuiListItem-button css-1qkmnhx-MuiButtonBase-root-MuiListItem-root"
            href="/ide?template=storeValue.py"
            tabindex="0"
          >
            <div
              class="MuiListItemAvatar-root css-1e9lk82-MuiListItemAvatar-root"
            >
              <svg
                class="makeStyles-icon-19"
                height="320"
                viewBox="0 0 250 320"
                width="250"
              >
                <path
                  d="M 50,124 C 16.666667,41.333333 33.333333,82.666667 50,124 Z"
                  fill="#66aacc"
                />
                <path
                  d="M 0,153 V 72 L 125.5,0 252,73 v 54.5 l -72,42.5 -73,-42 19,-11 53,31 53,-31 V 84.5 L 126,22 20,84 v 58 z"
                  fill="#006dcc"
                />
                <path
                  d="m 51,102 74.20465,-43.07113 71.5907,41.14226 L 178.5,111 126,80 51,123 Z"
                  fill="#66aacc"
                />
                <path
                  d="m 252,164 v 81 L 126.5,317 0,244 v -54.5 l 72,-42.5 73,42 -19,11 -53,-31 -53,31 v 32.5 L 126,295 232,233 v -58 z"
                  fill="#006dcc"
                />
                <path
                  d="M 199.79534,215 125.59069,258.07114 54,216.92887 72.29535,206 l 52.49999,31 75,-43 z"
                  fill="#66aacc"
                />
              </svg>
            </div>
            <div
              class="MuiListItemText-root MuiListItemText-dense css-tlelie-MuiListItemText-root"
            >
              <span
                class="MuiTypography-root MuiTypography-body2 MuiListItemText-primary css-et1ao3-MuiTypography-root"
              >
                commonComponents.selectionOfTemplates.storeValueDescription
              </span>
            </div>
            <span
              class="MuiTouchRipple-root css-8je8zh-MuiTouchRipple-root"
            />
          </a>
          <a
            class="MuiButtonBase-root MuiListItem-root MuiListItem-dense MuiListItem-gutters MuiListItem-padding MuiListItem-button css-qyxyi3-MuiButtonBase-root-MuiListItem-root"
            href="/ide?template=chess.py"
            tabindex="0"
          >
            <div
              class="MuiListItemAvatar-root css-1e9lk82-MuiListItemAvatar-root"
            >
              <svg
                class="makeStyles-icon-19"
                height="320"
                viewBox="0 0 250 320"
                width="250"
              >
                <path
                  d="M 50,124 C 16.666667,41.333333 33.333333,82.666667 50,124 Z"
                  fill="#66aacc"
                />
                <path
                  d="M 0,153 V 72 L 125.5,0 252,73 v 54.5 l -72,42.5 -73,-42 19,-11 53,31 53,-31 V 84.5 L 126,22 20,84 v 58 z"
                  fill="#006dcc"
                />
                <path
                  d="m 51,102 74.20465,-43.07113 71.5907,41.14226 L 178.5,111 126,80 51,123 Z"
                  fill="#66aacc"
                />
                <path
                  d="m 252,164 v 81 L 126.5,317 0,244 v -54.5 l 72,-42.5 73,42 -19,11 -53,-31 -53,31 v 32.5 L 126,295 232,233 v -58 z"
                  fill="#006dcc"
                />
                <path
                  d="M 199.79534,215 125.59069,258.07114 54,216.92887 72.29535,206 l 52.49999,31 75,-43 z"
                  fill="#66aacc"
                />
              </svg>
            </div>
            <div
              class="MuiListItemText-root MuiListItemText-dense css-tlelie-MuiListItemText-root"
            >
              <span
                class="MuiTypography-root MuiTypography-body2 MuiListItemText-primary css-et1ao3-MuiTypography-root"
              >
                commonComponents.selectionOfTemplates.chessDescription
              </span>
            </div>
            <span
              class="MuiTouchRipple-root css-8je8zh-MuiTouchRipple-root"
            />
          </a>
          <hr
            class="MuiDivider-root MuiDivider-fullWidth css-9mgopn-MuiDivider-root"
          />
          <a
            class="MuiButtonBase-root MuiListItem-root MuiListItem-dense MuiListItem-gutters MuiListItem-padding MuiListItem-divider MuiListItem-button css-1qkmnhx-MuiButtonBase-root-MuiListItem-root"
            href="/ide?template=FA2.py"
            tabindex="0"
          >
            <div
              class="MuiListItemAvatar-root css-1e9lk82-MuiListItemAvatar-root"
            >
              <svg
                class="makeStyles-icon-19"
                height="320"
                viewBox="0 0 250 320"
                width="250"
              >
                <path
                  d="M 50,124 C 16.666667,41.333333 33.333333,82.666667 50,124 Z"
                  fill="#66aacc"
                />
                <path
                  d="M 0,153 V 72 L 125.5,0 252,73 v 54.5 l -72,42.5 -73,-42 19,-11 53,31 53,-31 V 84.5 L 126,22 20,84 v 58 z"
                  fill="#006dcc"
                />
                <path
                  d="m 51,102 74.20465,-43.07113 71.5907,41.14226 L 178.5,111 126,80 51,123 Z"
                  fill="#66aacc"
                />
                <path
                  d="m 252,164 v 81 L 126.5,317 0,244 v -54.5 l 72,-42.5 73,42 -19,11 -53,-31 -53,31 v 32.5 L 126,295 232,233 v -58 z"
                  fill="#006dcc"
                />
                <path
                  d="M 199.79534,215 125.59069,258.07114 54,216.92887 72.29535,206 l 52.49999,31 75,-43 z"
                  fill="#66aacc"
                />
              </svg>
            </div>
            <div
              class="MuiListItemText-root MuiListItemText-dense css-tlelie-MuiListItemText-root"
            >
              <span
                class="MuiTypography-root MuiTypography-body2 MuiListItemText-primary css-et1ao3-MuiTypography-root"
              >
                commonComponents.selectionOfTemplates.fa2Description
              </span>
            </div>
            <span
              class="MuiTouchRipple-root css-8je8zh-MuiTouchRipple-root"
            />
          </a>
          <a
            class="MuiButtonBase-root MuiListItem-root MuiListItem-dense MuiListItem-gutters MuiListItem-padding MuiListItem-button css-qyxyi3-MuiButtonBase-root-MuiListItem-root"
            href="/ide?template=oracle.py"
            tabindex="0"
          >
            <div
              class="MuiListItemAvatar-root css-1e9lk82-MuiListItemAvatar-root"
            >
              <svg
                class="makeStyles-icon-19"
                height="320"
                viewBox="0 0 250 320"
                width="250"
              >
                <path
                  d="M 50,124 C 16.666667,41.333333 33.333333,82.666667 50,124 Z"
                  fill="#66aacc"
                />
                <path
                  d="M 0,153 V 72 L 125.5,0 252,73 v 54.5 l -72,42.5 -73,-42 19,-11 53,31 53,-31 V 84.5 L 126,22 20,84 v 58 z"
                  fill="#006dcc"
                />
                <path
                  d="m 51,102 74.20465,-43.07113 71.5907,41.14226 L 178.5,111 126,80 51,123 Z"
                  fill="#66aacc"
                />
                <path
                  d="m 252,164 v 81 L 126.5,317 0,244 v -54.5 l 72,-42.5 73,42 -19,11 -53,-31 -53,31 v 32.5 L 126,295 232,233 v -58 z"
                  fill="#006dcc"
                />
                <path
                  d="M 199.79534,215 125.59069,258.07114 54,216.92887 72.29535,206 l 52.49999,31 75,-43 z"
                  fill="#66aacc"
                />
              </svg>
            </div>
            <div
              class="MuiListItemText-root MuiListItemText-dense css-tlelie-MuiListItemText-root"
            >
              <span
                class="MuiTypography-root MuiTypography-body2 MuiListItemText-primary css-et1ao3-MuiTypography-root"
              >
                commonComponents.selectionOfTemplates.chainLinkDescription
              </span>
            </div>
            <span
              class="MuiTouchRipple-root css-8je8zh-MuiTouchRipple-root"
            />
          </a>
        </ul>
      </div>
      <h6
        class="MuiTypography-root MuiTypography-h6 makeStyles-title-8 makeStyles-marginBottom-10 css-2ulfj5-MuiTypography-root"
      >
        help.internalModulesHeader
      </h6>
      <p
        class="MuiTypography-root MuiTypography-body1 MuiTypography-gutterBottom makeStyles-description-9 makeStyles-marginBottom-10 css-d3wcwz-MuiTypography-root"
      >
        help.internalModulesSubHeader
      </p>
      <div
        class="MuiGrid-root MuiGrid-container MuiGrid-spacing-xs-2 css-919fip-MuiGrid-root"
      >
        <div
          class="MuiGrid-root MuiGrid-item MuiGrid-grid-xs-12 css-1em9ut6-MuiGrid-root"
        >
          <div
            class="MuiPaper-root MuiPaper-elevation MuiPaper-rounded MuiPaper-elevation1 makeStyles-card-7 makeStyles-marginBottom-10 css-1ps6pg7-MuiPaper-root"
          >
            <ul
              class="MuiList-root MuiList-padding makeStyles-list-13 css-h4y409-MuiList-root"
            >
              <div
                class="MuiButtonBase-root MuiListItem-root MuiListItem-dense MuiListItem-gutters MuiListItem-padding MuiListItem-divider MuiListItem-button css-1qkmnhx-MuiButtonBase-root-MuiListItem-root"
                role="button"
                tabindex="0"
              >
                <div
                  class="MuiListItemAvatar-root css-1e9lk82-MuiListItemAvatar-root"
                >
                  <svg
                    aria-hidden="true"
                    class="MuiSvgIcon-root MuiSvgIcon-fontSizeLarge css-tzssek-MuiSvgIcon-root"
                    data-testid="DescriptionIcon"
                    focusable="false"
                    viewBox="0 0 24 24"
                  >
                    <path
                      d="M14 2H6c-1.1 0-1.99.9-1.99 2L4 20c0 1.1.89 2 1.99 2H18c1.1 0 2-.9 2-2V8l-6-6zm2 16H8v-2h8v2zm0-4H8v-2h8v2zm-3-5V3.5L18.5 9H13z"
                    />
                  </svg>
                </div>
                <div
                  class="MuiListItemText-root MuiListItemText-dense MuiListItemText-multiline css-konndc-MuiListItemText-root"
                >
                  <span
                    class="MuiTypography-root MuiTypography-body2 MuiListItemText-primary css-et1ao3-MuiTypography-root"
                  >
                    smartpy.py
                  </span>
                  <p
                    class="MuiTypography-root MuiTypography-body2 MuiListItemText-secondary css-83ijpv-MuiTypography-root"
                  >
                    help.smartpyModuleDescription
                  </p>
                </div>
                <span
                  class="MuiTouchRipple-root css-8je8zh-MuiTouchRipple-root"
                />
              </div>
              <div
                class="MuiButtonBase-root MuiListItem-root MuiListItem-dense MuiListItem-gutters MuiListItem-padding MuiListItem-button css-qyxyi3-MuiButtonBase-root-MuiListItem-root"
                role="button"
                tabindex="0"
              >
                <div
                  class="MuiListItemAvatar-root css-1e9lk82-MuiListItemAvatar-root"
                >
                  <svg
                    aria-hidden="true"
                    class="MuiSvgIcon-root MuiSvgIcon-fontSizeLarge css-tzssek-MuiSvgIcon-root"
                    data-testid="DescriptionIcon"
                    focusable="false"
                    viewBox="0 0 24 24"
                  >
                    <path
                      d="M14 2H6c-1.1 0-1.99.9-1.99 2L4 20c0 1.1.89 2 1.99 2H18c1.1 0 2-.9 2-2V8l-6-6zm2 16H8v-2h8v2zm0-4H8v-2h8v2zm-3-5V3.5L18.5 9H13z"
                    />
                  </svg>
                </div>
                <div
                  class="MuiListItemText-root MuiListItemText-dense MuiListItemText-multiline css-konndc-MuiListItemText-root"
                >
                  <span
                    class="MuiTypography-root MuiTypography-body2 MuiListItemText-primary css-et1ao3-MuiTypography-root"
                  >
                    smartpyio.py
                  </span>
                  <p
                    class="MuiTypography-root MuiTypography-body2 MuiListItemText-secondary css-83ijpv-MuiTypography-root"
                  >
                    help.smartpyioModuleDescription
                  </p>
                </div>
                <span
                  class="MuiTouchRipple-root css-8je8zh-MuiTouchRipple-root"
                />
              </div>
            </ul>
          </div>
        </div>
      </div>
      <p
        class="MuiTypography-root MuiTypography-body1 MuiTypography-gutterBottom makeStyles-description-9 makeStyles-marginBottom-10 css-d3wcwz-MuiTypography-root"
      >
        help.smartpyReliesOn
        <a
          class="MuiTypography-root MuiTypography-inherit MuiLink-root MuiLink-underlineAlways css-1iwtne7-MuiTypography-root-MuiLink-root"
          href="https://gitlab.com/SmartPy/smartpy"
          target="_blank"
        >
          help.openSourceDistribution
        </a>
      </p>
    </div>
    <hr
      class="MuiDivider-root MuiDivider-fullWidth css-9mgopn-MuiDivider-root"
    />
    <div
      class="makeStyles-root-20"
      id="faq"
    >
      <h4
        class="MuiTypography-root MuiTypography-h4 makeStyles-title-22 css-5lbw0b-MuiTypography-root"
      >
        help.faqAcron
      </h4>
      <p
        class="MuiTypography-root MuiTypography-body1 MuiTypography-gutterBottom makeStyles-description-23 css-d3wcwz-MuiTypography-root"
      >
        Please see our answers to 
        <a
          class="MuiTypography-root MuiTypography-inherit MuiLink-root MuiLink-underlineAlways css-1iwtne7-MuiTypography-root-MuiLink-root"
          href="/faq.html"
        >
          help.faq
        </a>
      </p>
    </div>
    <hr
      class="MuiDivider-root MuiDivider-fullWidth css-9mgopn-MuiDivider-root"
    />
    <div
      class="makeStyles-root-30"
      id="articles"
    >
      <h4
        class="MuiTypography-root MuiTypography-h4 makeStyles-title-33 css-5lbw0b-MuiTypography-root"
      >
        articlesGuides.blogPostsAndOtherMaterials
      </h4>
      <div
        class="MuiGrid-root MuiGrid-container MuiGrid-spacing-xs-2 css-919fip-MuiGrid-root"
      >
        <div
          class="MuiGrid-root MuiGrid-item MuiGrid-grid-xs-12 css-1em9ut6-MuiGrid-root"
        >
          <div
            class="MuiPaper-root MuiPaper-elevation MuiPaper-rounded MuiPaper-elevation1 makeStyles-card-31 css-1ps6pg7-MuiPaper-root"
          >
            <h6
              class="MuiTypography-root MuiTypography-h6 MuiTypography-gutterBottom makeStyles-description-34 css-18k87ye-MuiTypography-root"
            >
              articlesGuides.someMaterialsBySmartPy
            </h6>
            <hr
              class="MuiDivider-root MuiDivider-fullWidth css-9mgopn-MuiDivider-root"
            />
            <p
              class="MuiTypography-root MuiTypography-body1 MuiTypography-gutterBottom makeStyles-innerDescription-35 css-d3wcwz-MuiTypography-root"
            >
              common.mediumPosts
            </p>
            <hr
              class="MuiDivider-root MuiDivider-fullWidth css-9mgopn-MuiDivider-root"
            />
            <ul
              class="MuiList-root MuiList-padding makeStyles-list-36 css-h4y409-MuiList-root"
            >
              <a
                class="MuiButtonBase-root MuiListItem-root MuiListItem-dense MuiListItem-gutters MuiListItem-padding MuiListItem-divider MuiListItem-button css-1qkmnhx-MuiButtonBase-root-MuiListItem-root"
                href="https://smartpy-io.medium.com/metadata-in-smartpy-3eb09fcd1de7"
                tabindex="0"
              >
                <div
                  class="MuiListItemAvatar-root css-1e9lk82-MuiListItemAvatar-root"
                >
                  <svg
                    aria-hidden="true"
                    class="MuiSvgIcon-root MuiSvgIcon-fontSizeLarge css-tzssek-MuiSvgIcon-root"
                    focusable="false"
                    viewBox="0 0 72 72"
                  >
                    <rect
                      fill="#1A1919"
                      height="72"
                      rx="4"
                      width="72"
                      x="0"
                      y="0"
                    />
                    <path
                      d="M59 23.453h-1.82c-.675 0-1.63.99-1.63 1.623v22.972c0 .634.955 1.5 1.63 1.5H59V55H42.517v-5.453h3.45V25.4h-.17L37.742 55h-6.237L23.55 25.4h-.201v24.147h3.45V55H13v-5.453h1.767c.728 0 1.683-.865 1.683-1.5v-22.97c0-.634-.955-1.624-1.683-1.624H13V18h17.256l5.666 21.421h.156L41.796 18H59v5.453"
                      fill="#FFF"
                    />
                  </svg>
                </div>
                <div
                  class="MuiListItemText-root MuiListItemText-dense MuiListItemText-multiline css-konndc-MuiListItemText-root"
                >
                  <span
                    class="MuiTypography-root MuiTypography-body2 MuiListItemText-primary css-et1ao3-MuiTypography-root"
                  >
                    Metadata in SmartPy
                  </span>
                  <p
                    class="MuiTypography-root MuiTypography-body2 MuiListItemText-secondary css-83ijpv-MuiTypography-root"
                  >
                    Nov 28, 2020 · 3 min read
                  </p>
                </div>
                <span
                  class="MuiTouchRipple-root css-8je8zh-MuiTouchRipple-root"
                />
              </a>
              <a
                class="MuiButtonBase-root MuiListItem-root MuiListItem-dense MuiListItem-gutters MuiListItem-padding MuiListItem-divider MuiListItem-button css-1qkmnhx-MuiButtonBase-root-MuiListItem-root"
                href="https://smartpy-io.medium.com/smartpy-focus-importing-smartpy-and-python-code-7c302eb9487"
                tabindex="0"
              >
                <div
                  class="MuiListItemAvatar-root css-1e9lk82-MuiListItemAvatar-root"
                >
                  <svg
                    aria-hidden="true"
                    class="MuiSvgIcon-root MuiSvgIcon-fontSizeLarge css-tzssek-MuiSvgIcon-root"
                    focusable="false"
                    viewBox="0 0 72 72"
                  >
                    <rect
                      fill="#1A1919"
                      height="72"
                      rx="4"
                      width="72"
                      x="0"
                      y="0"
                    />
                    <path
                      d="M59 23.453h-1.82c-.675 0-1.63.99-1.63 1.623v22.972c0 .634.955 1.5 1.63 1.5H59V55H42.517v-5.453h3.45V25.4h-.17L37.742 55h-6.237L23.55 25.4h-.201v24.147h3.45V55H13v-5.453h1.767c.728 0 1.683-.865 1.683-1.5v-22.97c0-.634-.955-1.624-1.683-1.624H13V18h17.256l5.666 21.421h.156L41.796 18H59v5.453"
                      fill="#FFF"
                    />
                  </svg>
                </div>
                <div
                  class="MuiListItemText-root MuiListItemText-dense MuiListItemText-multiline css-konndc-MuiListItemText-root"
                >
                  <span
                    class="MuiTypography-root MuiTypography-body2 MuiListItemText-primary css-et1ao3-MuiTypography-root"
                  >
                    SmartPy Focus: Importing SmartPy and Python code
                  </span>
                  <p
                    class="MuiTypography-root MuiTypography-body2 MuiListItemText-secondary css-83ijpv-MuiTypography-root"
                  >
                    Oct 5, 2020 · 3 min read
                  </p>
                </div>
                <span
                  class="MuiTouchRipple-root css-8je8zh-MuiTouchRipple-root"
                />
              </a>
              <a
                class="MuiButtonBase-root MuiListItem-root MuiListItem-dense MuiListItem-gutters MuiListItem-padding MuiListItem-divider MuiListItem-button css-1qkmnhx-MuiButtonBase-root-MuiListItem-root"
                href="https://smartpy-io.medium.com/new-release-for-smartpy-and-smartpy-io-89d11dc5146a"
                tabindex="0"
              >
                <div
                  class="MuiListItemAvatar-root css-1e9lk82-MuiListItemAvatar-root"
                >
                  <svg
                    aria-hidden="true"
                    class="MuiSvgIcon-root MuiSvgIcon-fontSizeLarge css-tzssek-MuiSvgIcon-root"
                    focusable="false"
                    viewBox="0 0 72 72"
                  >
                    <rect
                      fill="#1A1919"
                      height="72"
                      rx="4"
                      width="72"
                      x="0"
                      y="0"
                    />
                    <path
                      d="M59 23.453h-1.82c-.675 0-1.63.99-1.63 1.623v22.972c0 .634.955 1.5 1.63 1.5H59V55H42.517v-5.453h3.45V25.4h-.17L37.742 55h-6.237L23.55 25.4h-.201v24.147h3.45V55H13v-5.453h1.767c.728 0 1.683-.865 1.683-1.5v-22.97c0-.634-.955-1.624-1.683-1.624H13V18h17.256l5.666 21.421h.156L41.796 18H59v5.453"
                      fill="#FFF"
                    />
                  </svg>
                </div>
                <div
                  class="MuiListItemText-root MuiListItemText-dense MuiListItemText-multiline css-konndc-MuiListItemText-root"
                >
                  <span
                    class="MuiTypography-root MuiTypography-body2 MuiListItemText-primary css-et1ao3-MuiTypography-root"
                  >
                    New Release for SmartPy and SmartPy.io: Open Source Version and Syntax, Testing, and Michelson Compiler Improvements
                  </span>
                  <p
                    class="MuiTypography-root MuiTypography-body2 MuiListItemText-secondary css-83ijpv-MuiTypography-root"
                  >
                    Jan 13, 2020 · 3 min read
                  </p>
                </div>
                <span
                  class="MuiTouchRipple-root css-8je8zh-MuiTouchRipple-root"
                />
              </a>
              <a
                class="MuiButtonBase-root MuiListItem-root MuiListItem-dense MuiListItem-gutters MuiListItem-padding MuiListItem-divider MuiListItem-button css-1qkmnhx-MuiButtonBase-root-MuiListItem-root"
                href="https://smartpy-io.medium.com/introducing-smartpy-and-smartpy-io-d4013bee7d4e"
                tabindex="0"
              >
                <div
                  class="MuiListItemAvatar-root css-1e9lk82-MuiListItemAvatar-root"
                >
                  <svg
                    aria-hidden="true"
                    class="MuiSvgIcon-root MuiSvgIcon-fontSizeLarge css-tzssek-MuiSvgIcon-root"
                    focusable="false"
                    viewBox="0 0 72 72"
                  >
                    <rect
                      fill="#1A1919"
                      height="72"
                      rx="4"
                      width="72"
                      x="0"
                      y="0"
                    />
                    <path
                      d="M59 23.453h-1.82c-.675 0-1.63.99-1.63 1.623v22.972c0 .634.955 1.5 1.63 1.5H59V55H42.517v-5.453h3.45V25.4h-.17L37.742 55h-6.237L23.55 25.4h-.201v24.147h3.45V55H13v-5.453h1.767c.728 0 1.683-.865 1.683-1.5v-22.97c0-.634-.955-1.624-1.683-1.624H13V18h17.256l5.666 21.421h.156L41.796 18H59v5.453"
                      fill="#FFF"
                    />
                  </svg>
                </div>
                <div
                  class="MuiListItemText-root MuiListItemText-dense MuiListItemText-multiline css-konndc-MuiListItemText-root"
                >
                  <span
                    class="MuiTypography-root MuiTypography-body2 MuiListItemText-primary css-et1ao3-MuiTypography-root"
                  >
                    Introducting SmartPy and SmartPy.io, an Intiutive and Effective Language and Development Platform for Tezos Smart Contracts.
                  </span>
                  <p
                    class="MuiTypography-root MuiTypography-body2 MuiListItemText-secondary css-83ijpv-MuiTypography-root"
                  >
                    Mar 5 2019 . 14 min read
                  </p>
                </div>
                <span
                  class="MuiTouchRipple-root css-8je8zh-MuiTouchRipple-root"
                />
              </a>
              <a
                class="MuiButtonBase-root MuiListItem-root MuiListItem-dense MuiListItem-gutters MuiListItem-padding MuiListItem-divider MuiListItem-button css-1qkmnhx-MuiButtonBase-root-MuiListItem-root"
                href="https://smartpy-io.medium.com/a-first-encounter-with-smartpy-70e28bfeed79"
                tabindex="0"
              >
                <div
                  class="MuiListItemAvatar-root css-1e9lk82-MuiListItemAvatar-root"
                >
                  <svg
                    aria-hidden="true"
                    class="MuiSvgIcon-root MuiSvgIcon-fontSizeLarge css-tzssek-MuiSvgIcon-root"
                    focusable="false"
                    viewBox="0 0 72 72"
                  >
                    <rect
                      fill="#1A1919"
                      height="72"
                      rx="4"
                      width="72"
                      x="0"
                      y="0"
                    />
                    <path
                      d="M59 23.453h-1.82c-.675 0-1.63.99-1.63 1.623v22.972c0 .634.955 1.5 1.63 1.5H59V55H42.517v-5.453h3.45V25.4h-.17L37.742 55h-6.237L23.55 25.4h-.201v24.147h3.45V55H13v-5.453h1.767c.728 0 1.683-.865 1.683-1.5v-22.97c0-.634-.955-1.624-1.683-1.624H13V18h17.256l5.666 21.421h.156L41.796 18H59v5.453"
                      fill="#FFF"
                    />
                  </svg>
                </div>
                <div
                  class="MuiListItemText-root MuiListItemText-dense MuiListItemText-multiline css-konndc-MuiListItemText-root"
                >
                  <span
                    class="MuiTypography-root MuiTypography-body2 MuiListItemText-primary css-et1ao3-MuiTypography-root"
                  >
                    A First Encounter with SmartPy.
                  </span>
                  <p
                    class="MuiTypography-root MuiTypography-body2 MuiListItemText-secondary css-83ijpv-MuiTypography-root"
                  >
                    Jun 27 2019 · 9 min read
                  </p>
                </div>
                <span
                  class="MuiTouchRipple-root css-8je8zh-MuiTouchRipple-root"
                />
              </a>
              <a
                class="MuiButtonBase-root MuiListItem-root MuiListItem-dense MuiListItem-gutters MuiListItem-padding MuiListItem-divider MuiListItem-button css-1qkmnhx-MuiButtonBase-root-MuiListItem-root"
                href="https://smartpy-io.medium.com/basic-computations-in-smartpy-python-and-michelson-bb69dccddaf2"
                tabindex="0"
              >
                <div
                  class="MuiListItemAvatar-root css-1e9lk82-MuiListItemAvatar-root"
                >
                  <svg
                    aria-hidden="true"
                    class="MuiSvgIcon-root MuiSvgIcon-fontSizeLarge css-tzssek-MuiSvgIcon-root"
                    focusable="false"
                    viewBox="0 0 72 72"
                  >
                    <rect
                      fill="#1A1919"
                      height="72"
                      rx="4"
                      width="72"
                      x="0"
                      y="0"
                    />
                    <path
                      d="M59 23.453h-1.82c-.675 0-1.63.99-1.63 1.623v22.972c0 .634.955 1.5 1.63 1.5H59V55H42.517v-5.453h3.45V25.4h-.17L37.742 55h-6.237L23.55 25.4h-.201v24.147h3.45V55H13v-5.453h1.767c.728 0 1.683-.865 1.683-1.5v-22.97c0-.634-.955-1.624-1.683-1.624H13V18h17.256l5.666 21.421h.156L41.796 18H59v5.453"
                      fill="#FFF"
                    />
                  </svg>
                </div>
                <div
                  class="MuiListItemText-root MuiListItemText-dense MuiListItemText-multiline css-konndc-MuiListItemText-root"
                >
                  <span
                    class="MuiTypography-root MuiTypography-body2 MuiListItemText-primary css-et1ao3-MuiTypography-root"
                  >
                    Basic Computations in SmartPy, Python and Michelson.
                  </span>
                  <p
                    class="MuiTypography-root MuiTypography-body2 MuiListItemText-secondary css-83ijpv-MuiTypography-root"
                  >
                    Jul 25 2019 · 4 min read
                  </p>
                </div>
                <span
                  class="MuiTouchRipple-root css-8je8zh-MuiTouchRipple-root"
                />
              </a>
              <a
                class="MuiButtonBase-root MuiListItem-root MuiListItem-dense MuiListItem-gutters MuiListItem-padding MuiListItem-divider MuiListItem-button css-1qkmnhx-MuiButtonBase-root-MuiListItem-root"
                href="https://smartpy-io.medium.com/introducing-smartpybasic-a-simple-cli-to-build-tezos-smart-contract-in-python-f5bd8772b74a"
                tabindex="0"
              >
                <div
                  class="MuiListItemAvatar-root css-1e9lk82-MuiListItemAvatar-root"
                >
                  <svg
                    aria-hidden="true"
                    class="MuiSvgIcon-root MuiSvgIcon-fontSizeLarge css-tzssek-MuiSvgIcon-root"
                    focusable="false"
                    viewBox="0 0 72 72"
                  >
                    <rect
                      fill="#1A1919"
                      height="72"
                      rx="4"
                      width="72"
                      x="0"
                      y="0"
                    />
                    <path
                      d="M59 23.453h-1.82c-.675 0-1.63.99-1.63 1.623v22.972c0 .634.955 1.5 1.63 1.5H59V55H42.517v-5.453h3.45V25.4h-.17L37.742 55h-6.237L23.55 25.4h-.201v24.147h3.45V55H13v-5.453h1.767c.728 0 1.683-.865 1.683-1.5v-22.97c0-.634-.955-1.624-1.683-1.624H13V18h17.256l5.666 21.421h.156L41.796 18H59v5.453"
                      fill="#FFF"
                    />
                  </svg>
                </div>
                <div
                  class="MuiListItemText-root MuiListItemText-dense MuiListItemText-multiline css-konndc-MuiListItemText-root"
                >
                  <span
                    class="MuiTypography-root MuiTypography-body2 MuiListItemText-primary css-et1ao3-MuiTypography-root"
                  >
                    Introducing smartpy-cli, a simple CLI to build Tezos smart contract in Python.
                  </span>
                  <p
                    class="MuiTypography-root MuiTypography-body2 MuiListItemText-secondary css-83ijpv-MuiTypography-root"
                  >
                    Sep 13 2019 · 3 min read
                  </p>
                </div>
                <span
                  class="MuiTouchRipple-root css-8je8zh-MuiTouchRipple-root"
                />
              </a>
            </ul>
            <hr
              class="MuiDivider-root MuiDivider-fullWidth css-9mgopn-MuiDivider-root"
            />
            <p
              class="MuiTypography-root MuiTypography-body1 MuiTypography-gutterBottom makeStyles-innerDescription-35 css-d3wcwz-MuiTypography-root"
            >
              common.videos
            </p>
            <hr
              class="MuiDivider-root MuiDivider-fullWidth css-9mgopn-MuiDivider-root"
            />
            <ul
              class="MuiList-root MuiList-padding makeStyles-list-36 css-h4y409-MuiList-root"
            >
              <a
                class="MuiButtonBase-root MuiListItem-root MuiListItem-dense MuiListItem-gutters MuiListItem-padding MuiListItem-divider MuiListItem-button css-1qkmnhx-MuiButtonBase-root-MuiListItem-root"
                href="https://www.youtube.com/watch?v=u1duZUptIcc"
                tabindex="0"
              >
                <div
                  class="MuiListItemAvatar-root css-1e9lk82-MuiListItemAvatar-root"
                >
                  <svg
                    aria-hidden="true"
                    class="MuiSvgIcon-root MuiSvgIcon-fontSizeLarge makeStyles-youtubeIcon-37 css-tzssek-MuiSvgIcon-root"
                    data-testid="YouTubeIcon"
                    focusable="false"
                    viewBox="0 0 24 24"
                  >
                    <path
                      d="M10 15l5.19-3L10 9v6m11.56-7.83c.13.47.22 1.1.28 1.9.07.8.1 1.49.1 2.09L22 12c0 2.19-.16 3.8-.44 4.83-.25.9-.83 1.48-1.73 1.73-.47.13-1.33.22-2.65.28-1.3.07-2.49.1-3.59.1L12 19c-4.19 0-6.8-.16-7.83-.44-.9-.25-1.48-.83-1.73-1.73-.13-.47-.22-1.1-.28-1.9-.07-.8-.1-1.49-.1-2.09L2 12c0-2.19.16-3.8.44-4.83.25-.9.83-1.48 1.73-1.73.47-.13 1.33-.22 2.65-.28 1.3-.07 2.49-.1 3.59-.1L12 5c4.19 0 6.8.16 7.83.44.9.25 1.48.83 1.73 1.73z"
                    />
                  </svg>
                </div>
                <div
                  class="MuiListItemText-root MuiListItemText-dense MuiListItemText-multiline css-konndc-MuiListItemText-root"
                >
                  <span
                    class="MuiTypography-root MuiTypography-body2 MuiListItemText-primary css-et1ao3-MuiTypography-root"
                  >
                    SmartPy: The inner workings
                  </span>
                  <p
                    class="MuiTypography-root MuiTypography-body2 MuiListItemText-secondary css-83ijpv-MuiTypography-root"
                  >
                    Fev 9, 2021 · 57 min video
                  </p>
                </div>
                <span
                  class="MuiTouchRipple-root css-8je8zh-MuiTouchRipple-root"
                />
              </a>
            </ul>
            <hr
              class="MuiDivider-root MuiDivider-fullWidth css-9mgopn-MuiDivider-root"
            />
          </div>
        </div>
        <div
          class="MuiGrid-root MuiGrid-item MuiGrid-grid-xs-12 css-1em9ut6-MuiGrid-root"
        >
          <div
            class="MuiPaper-root MuiPaper-elevation MuiPaper-rounded MuiPaper-elevation1 makeStyles-card-31 css-1ps6pg7-MuiPaper-root"
          >
            <h6
              class="MuiTypography-root MuiTypography-h6 MuiTypography-gutterBottom makeStyles-description-34 css-18k87ye-MuiTypography-root"
            >
              articlesGuides.someMaterialsByOtherTeams
            </h6>
            <hr
              class="MuiDivider-root MuiDivider-fullWidth css-9mgopn-MuiDivider-root"
            />
            <p
              class="MuiTypography-root MuiTypography-body1 MuiTypography-gutterBottom makeStyles-innerDescription-35 css-d3wcwz-MuiTypography-root"
            >
              articlesGuides.b9labSection
               
              <a
                class="MuiTypography-root MuiTypography-inherit MuiLink-root MuiLink-underlineAlways css-1iwtne7-MuiTypography-root-MuiLink-root"
                href="https://tezos.b9lab.com"
              >
                B9lab
              </a>
            </p>
            <hr
              class="MuiDivider-root MuiDivider-fullWidth css-9mgopn-MuiDivider-root"
            />
            <ul
              class="MuiList-root MuiList-padding makeStyles-list-36 css-h4y409-MuiList-root"
            >
              <a
                class="MuiButtonBase-root MuiListItem-root MuiListItem-dense MuiListItem-gutters MuiListItem-padding MuiListItem-divider MuiListItem-button css-1qkmnhx-MuiButtonBase-root-MuiListItem-root"
                href="https://tezos.b9lab.com/blockchain-fundamentals/landingpage"
                tabindex="0"
              >
                <div
                  class="MuiListItemAvatar-root css-1e9lk82-MuiListItemAvatar-root"
                >
                  <svg
                    aria-hidden="true"
                    class="MuiSvgIcon-root MuiSvgIcon-fontSizeLarge css-tzssek-MuiSvgIcon-root"
                    data-testid="SchoolIcon"
                    focusable="false"
                    viewBox="0 0 24 24"
                  >
                    <path
                      d="M5 13.18v4L12 21l7-3.82v-4L12 17l-7-3.82zM12 3 1 9l11 6 9-4.91V17h2V9L12 3z"
                    />
                  </svg>
                </div>
                <div
                  class="MuiListItemText-root MuiListItemText-dense MuiListItemText-multiline css-konndc-MuiListItemText-root"
                >
                  <span
                    class="MuiTypography-root MuiTypography-body2 MuiListItemText-primary css-et1ao3-MuiTypography-root"
                  >
                    Tezos Introduction
                  </span>
                  <p
                    class="MuiTypography-root MuiTypography-body2 MuiListItemText-secondary css-83ijpv-MuiTypography-root"
                  >
                    April 8, 2021
                  </p>
                </div>
                <span
                  class="MuiTouchRipple-root css-8je8zh-MuiTouchRipple-root"
                />
              </a>
              <a
                class="MuiButtonBase-root MuiListItem-root MuiListItem-dense MuiListItem-gutters MuiListItem-padding MuiListItem-divider MuiListItem-button css-1qkmnhx-MuiButtonBase-root-MuiListItem-root"
                href="https://tezos.b9lab.com/smart-contracts"
                tabindex="0"
              >
                <div
                  class="MuiListItemAvatar-root css-1e9lk82-MuiListItemAvatar-root"
                >
                  <svg
                    aria-hidden="true"
                    class="MuiSvgIcon-root MuiSvgIcon-fontSizeLarge css-tzssek-MuiSvgIcon-root"
                    data-testid="SchoolIcon"
                    focusable="false"
                    viewBox="0 0 24 24"
                  >
                    <path
                      d="M5 13.18v4L12 21l7-3.82v-4L12 17l-7-3.82zM12 3 1 9l11 6 9-4.91V17h2V9L12 3z"
                    />
                  </svg>
                </div>
                <div
                  class="MuiListItemText-root MuiListItemText-dense MuiListItemText-multiline css-konndc-MuiListItemText-root"
                >
                  <span
                    class="MuiTypography-root MuiTypography-body2 MuiListItemText-primary css-et1ao3-MuiTypography-root"
                  >
                    Writing Smart Contracts
                  </span>
                  <p
                    class="MuiTypography-root MuiTypography-body2 MuiListItemText-secondary css-83ijpv-MuiTypography-root"
                  >
                    April 8, 2021
                  </p>
                </div>
                <span
                  class="MuiTouchRipple-root css-8je8zh-MuiTouchRipple-root"
                />
              </a>
            </ul>
            <hr
              class="MuiDivider-root MuiDivider-fullWidth css-9mgopn-MuiDivider-root"
            />
            <p
              class="MuiTypography-root MuiTypography-body1 MuiTypography-gutterBottom makeStyles-innerDescription-35 css-d3wcwz-MuiTypography-root"
            >
              articlesGuides.tzatzikitzSection
               
              <a
                class="MuiTypography-root MuiTypography-inherit MuiLink-root MuiLink-underlineAlways css-1iwtne7-MuiTypography-root-MuiLink-root"
                href="https://styts.com"
              >
                tzatzikitz
              </a>
            </p>
            <hr
              class="MuiDivider-root MuiDivider-fullWidth css-9mgopn-MuiDivider-root"
            />
            <ul
              class="MuiList-root MuiList-padding makeStyles-list-36 css-h4y409-MuiList-root"
            >
              <a
                class="MuiButtonBase-root MuiListItem-root MuiListItem-dense MuiListItem-gutters MuiListItem-padding MuiListItem-divider MuiListItem-button css-1qkmnhx-MuiButtonBase-root-MuiListItem-root"
                href="https://styts.com/your-first-tezos-dapp"
                tabindex="0"
              >
                <div
                  class="MuiListItemAvatar-root css-1e9lk82-MuiListItemAvatar-root"
                >
                  <svg
                    aria-hidden="true"
                    class="MuiSvgIcon-root MuiSvgIcon-fontSizeLarge css-tzssek-MuiSvgIcon-root"
                    data-testid="SchoolIcon"
                    focusable="false"
                    viewBox="0 0 24 24"
                  >
                    <path
                      d="M5 13.18v4L12 21l7-3.82v-4L12 17l-7-3.82zM12 3 1 9l11 6 9-4.91V17h2V9L12 3z"
                    />
                  </svg>
                </div>
                <div
                  class="MuiListItemText-root MuiListItemText-dense MuiListItemText-multiline css-konndc-MuiListItemText-root"
                >
                  <span
                    class="MuiTypography-root MuiTypography-body2 MuiListItemText-primary css-et1ao3-MuiTypography-root"
                  >
                    Build your first DApp on Tezos in 2-4 hours
                  </span>
                  <p
                    class="MuiTypography-root MuiTypography-body2 MuiListItemText-secondary css-83ijpv-MuiTypography-root"
                  >
                    Mar 15, 2021
                  </p>
                </div>
                <span
                  class="MuiTouchRipple-root css-8je8zh-MuiTouchRipple-root"
                />
              </a>
            </ul>
            <hr
              class="MuiDivider-root MuiDivider-fullWidth css-9mgopn-MuiDivider-root"
            />
            <p
              class="MuiTypography-root MuiTypography-body1 MuiTypography-gutterBottom makeStyles-innerDescription-35 css-d3wcwz-MuiTypography-root"
            >
              articlesGuides.digitalAssets
            </p>
            <hr
              class="MuiDivider-root MuiDivider-fullWidth css-9mgopn-MuiDivider-root"
            />
            <ul
              class="MuiList-root MuiList-padding makeStyles-list-36 css-h4y409-MuiList-root"
            >
              <a
                class="MuiButtonBase-root MuiListItem-root MuiListItem-dense MuiListItem-gutters MuiListItem-padding MuiListItem-divider MuiListItem-button css-1qkmnhx-MuiButtonBase-root-MuiListItem-root"
                href="https://assets.tqtezos.com/docs/token-contracts/fa2/1-fa2-smartpy"
                tabindex="0"
              >
                <div
                  class="MuiListItemAvatar-root css-1e9lk82-MuiListItemAvatar-root"
                >
                  <svg
                    aria-hidden="true"
                    class="MuiSvgIcon-root MuiSvgIcon-fontSizeLarge css-tzssek-MuiSvgIcon-root"
                    data-testid="SchoolIcon"
                    focusable="false"
                    viewBox="0 0 24 24"
                  >
                    <path
                      d="M5 13.18v4L12 21l7-3.82v-4L12 17l-7-3.82zM12 3 1 9l11 6 9-4.91V17h2V9L12 3z"
                    />
                  </svg>
                </div>
                <div
                  class="MuiListItemText-root MuiListItemText-dense MuiListItemText-multiline css-konndc-MuiListItemText-root"
                >
                  <span
                    class="MuiTypography-root MuiTypography-body2 MuiListItemText-primary css-et1ao3-MuiTypography-root"
                  >
                    FA2 Token Guide By Seb Mondet
                  </span>
                  <p
                    class="MuiTypography-root MuiTypography-body2 MuiListItemText-secondary css-83ijpv-MuiTypography-root"
                  >
                    Sep 10, 2020
                  </p>
                </div>
                <span
                  class="MuiTouchRipple-root css-8je8zh-MuiTouchRipple-root"
                />
              </a>
              <a
                class="MuiButtonBase-root MuiListItem-root MuiListItem-dense MuiListItem-gutters MuiListItem-padding MuiListItem-divider MuiListItem-button css-1qkmnhx-MuiButtonBase-root-MuiListItem-root"
                href="https://medium.com/tqtezos/introducing-fa2-a-multi-asset-interface-for-tezos-55173d505e5f"
                tabindex="0"
              >
                <div
                  class="MuiListItemAvatar-root css-1e9lk82-MuiListItemAvatar-root"
                >
                  <svg
                    aria-hidden="true"
                    class="MuiSvgIcon-root MuiSvgIcon-fontSizeLarge css-tzssek-MuiSvgIcon-root"
                    focusable="false"
                    viewBox="0 0 72 72"
                  >
                    <rect
                      fill="#1A1919"
                      height="72"
                      rx="4"
                      width="72"
                      x="0"
                      y="0"
                    />
                    <path
                      d="M59 23.453h-1.82c-.675 0-1.63.99-1.63 1.623v22.972c0 .634.955 1.5 1.63 1.5H59V55H42.517v-5.453h3.45V25.4h-.17L37.742 55h-6.237L23.55 25.4h-.201v24.147h3.45V55H13v-5.453h1.767c.728 0 1.683-.865 1.683-1.5v-22.97c0-.634-.955-1.624-1.683-1.624H13V18h17.256l5.666 21.421h.156L41.796 18H59v5.453"
                      fill="#FFF"
                    />
                  </svg>
                </div>
                <div
                  class="MuiListItemText-root MuiListItemText-dense MuiListItemText-multiline css-konndc-MuiListItemText-root"
                >
                  <span
                    class="MuiTypography-root MuiTypography-body2 MuiListItemText-primary css-et1ao3-MuiTypography-root"
                  >
                    Introducing FA2: A Multi-Asset Interface for Tezos
                  </span>
                  <p
                    class="MuiTypography-root MuiTypography-body2 MuiListItemText-secondary css-83ijpv-MuiTypography-root"
                  >
                    Mar 6, 2020 · 9 min read
                  </p>
                </div>
                <span
                  class="MuiTouchRipple-root css-8je8zh-MuiTouchRipple-root"
                />
              </a>
            </ul>
            <hr
              class="MuiDivider-root MuiDivider-fullWidth css-9mgopn-MuiDivider-root"
            />
            <p
              class="MuiTypography-root MuiTypography-body1 MuiTypography-gutterBottom makeStyles-innerDescription-35 css-d3wcwz-MuiTypography-root"
            >
              articlesGuides.cryptonomicSection
               
              <a
                class="MuiTypography-root MuiTypography-inherit MuiLink-root MuiLink-underlineAlways css-1iwtne7-MuiTypography-root-MuiLink-root"
                href="https://cryptonomic.tech/"
              >
                Cryptonomic
              </a>
            </p>
            <hr
              class="MuiDivider-root MuiDivider-fullWidth css-9mgopn-MuiDivider-root"
            />
            <ul
              class="MuiList-root MuiList-padding makeStyles-list-36 css-h4y409-MuiList-root"
            >
              <a
                class="MuiButtonBase-root MuiListItem-root MuiListItem-dense MuiListItem-gutters MuiListItem-padding MuiListItem-divider MuiListItem-button css-1qkmnhx-MuiButtonBase-root-MuiListItem-root"
                href="https://medium.com/the-cryptonomic-aperiodical/the-future-of-chainlink-on-tezos-7f76c7bc64d5"
                tabindex="0"
              >
                <div
                  class="MuiListItemAvatar-root css-1e9lk82-MuiListItemAvatar-root"
                >
                  <svg
                    aria-hidden="true"
                    class="MuiSvgIcon-root MuiSvgIcon-fontSizeLarge css-tzssek-MuiSvgIcon-root"
                    focusable="false"
                    viewBox="0 0 72 72"
                  >
                    <rect
                      fill="#1A1919"
                      height="72"
                      rx="4"
                      width="72"
                      x="0"
                      y="0"
                    />
                    <path
                      d="M59 23.453h-1.82c-.675 0-1.63.99-1.63 1.623v22.972c0 .634.955 1.5 1.63 1.5H59V55H42.517v-5.453h3.45V25.4h-.17L37.742 55h-6.237L23.55 25.4h-.201v24.147h3.45V55H13v-5.453h1.767c.728 0 1.683-.865 1.683-1.5v-22.97c0-.634-.955-1.624-1.683-1.624H13V18h17.256l5.666 21.421h.156L41.796 18H59v5.453"
                      fill="#FFF"
                    />
                  </svg>
                </div>
                <div
                  class="MuiListItemText-root MuiListItemText-dense MuiListItemText-multiline css-konndc-MuiListItemText-root"
                >
                  <span
                    class="MuiTypography-root MuiTypography-body2 MuiListItemText-primary css-et1ao3-MuiTypography-root"
                  >
                    The future of Chainlink on Tezos
                  </span>
                  <p
                    class="MuiTypography-root MuiTypography-body2 MuiListItemText-secondary css-83ijpv-MuiTypography-root"
                  >
                    Oct 8, 2020 · 4 min read
                  </p>
                </div>
                <span
                  class="MuiTouchRipple-root css-8je8zh-MuiTouchRipple-root"
                />
              </a>
              <a
                class="MuiButtonBase-root MuiListItem-root MuiListItem-dense MuiListItem-gutters MuiListItem-padding MuiListItem-divider MuiListItem-button css-1qkmnhx-MuiButtonBase-root-MuiListItem-root"
                href="https://medium.com/the-cryptonomic-aperiodical/smart-contract-development-syllabus-f285a8463a4d"
                tabindex="0"
              >
                <div
                  class="MuiListItemAvatar-root css-1e9lk82-MuiListItemAvatar-root"
                >
                  <svg
                    aria-hidden="true"
                    class="MuiSvgIcon-root MuiSvgIcon-fontSizeLarge css-tzssek-MuiSvgIcon-root"
                    focusable="false"
                    viewBox="0 0 72 72"
                  >
                    <rect
                      fill="#1A1919"
                      height="72"
                      rx="4"
                      width="72"
                      x="0"
                      y="0"
                    />
                    <path
                      d="M59 23.453h-1.82c-.675 0-1.63.99-1.63 1.623v22.972c0 .634.955 1.5 1.63 1.5H59V55H42.517v-5.453h3.45V25.4h-.17L37.742 55h-6.237L23.55 25.4h-.201v24.147h3.45V55H13v-5.453h1.767c.728 0 1.683-.865 1.683-1.5v-22.97c0-.634-.955-1.624-1.683-1.624H13V18h17.256l5.666 21.421h.156L41.796 18H59v5.453"
                      fill="#FFF"
                    />
                  </svg>
                </div>
                <div
                  class="MuiListItemText-root MuiListItemText-dense MuiListItemText-multiline css-konndc-MuiListItemText-root"
                >
                  <span
                    class="MuiTypography-root MuiTypography-body2 MuiListItemText-primary css-et1ao3-MuiTypography-root"
                  >
                    Smart Contract Development Syllabus
                  </span>
                  <p
                    class="MuiTypography-root MuiTypography-body2 MuiListItemText-secondary css-83ijpv-MuiTypography-root"
                  >
                    Aug 16, 2019 · 1 min read
                  </p>
                </div>
                <span
                  class="MuiTouchRipple-root css-8je8zh-MuiTouchRipple-root"
                />
              </a>
            </ul>
            <hr
              class="MuiDivider-root MuiDivider-fullWidth css-9mgopn-MuiDivider-root"
            />
            <p
              class="MuiTypography-root MuiTypography-body1 MuiTypography-gutterBottom makeStyles-innerDescription-35 css-d3wcwz-MuiTypography-root"
            >
              articlesGuides.buidllabsSection
               
              <a
                class="MuiTypography-root MuiTypography-inherit MuiLink-root MuiLink-underlineAlways css-1iwtne7-MuiTypography-root-MuiLink-root"
                href="https://buidllabs.io"
              >
                BUIDL LABS
              </a>
            </p>
            <hr
              class="MuiDivider-root MuiDivider-fullWidth css-9mgopn-MuiDivider-root"
            />
            <ul
              class="MuiList-root MuiList-padding makeStyles-list-36 css-h4y409-MuiList-root"
            >
              <a
                class="MuiButtonBase-root MuiListItem-root MuiListItem-dense MuiListItem-gutters MuiListItem-padding MuiListItem-divider MuiListItem-button css-1qkmnhx-MuiButtonBase-root-MuiListItem-root"
                href="https://cryptocodeschool.in/tezos"
                tabindex="0"
              >
                <div
                  class="MuiListItemAvatar-root css-1e9lk82-MuiListItemAvatar-root"
                >
                  <svg
                    aria-hidden="true"
                    class="MuiSvgIcon-root MuiSvgIcon-fontSizeLarge css-tzssek-MuiSvgIcon-root"
                    data-testid="VideogameAssetIcon"
                    focusable="false"
                    viewBox="0 0 24 24"
                  >
                    <path
                      d="M21 6H3c-1.1 0-2 .9-2 2v8c0 1.1.9 2 2 2h18c1.1 0 2-.9 2-2V8c0-1.1-.9-2-2-2zm-10 7H8v3H6v-3H3v-2h3V8h2v3h3v2zm4.5 2c-.83 0-1.5-.67-1.5-1.5s.67-1.5 1.5-1.5 1.5.67 1.5 1.5-.67 1.5-1.5 1.5zm4-3c-.83 0-1.5-.67-1.5-1.5S18.67 9 19.5 9s1.5.67 1.5 1.5-.67 1.5-1.5 1.5z"
                    />
                  </svg>
                </div>
                <div
                  class="MuiListItemText-root MuiListItemText-dense MuiListItemText-multiline css-konndc-MuiListItemText-root"
                >
                  <span
                    class="MuiTypography-root MuiTypography-body2 MuiListItemText-primary css-et1ao3-MuiTypography-root"
                  >
                    Learn to code Tezos blockchain DApps in SmartPy
                  </span>
                  <p
                    class="MuiTypography-root MuiTypography-body2 MuiListItemText-secondary css-83ijpv-MuiTypography-root"
                  >
                    2020-2021
                  </p>
                </div>
                <span
                  class="MuiTouchRipple-root css-8je8zh-MuiTouchRipple-root"
                />
              </a>
            </ul>
            <hr
              class="MuiDivider-root MuiDivider-fullWidth css-9mgopn-MuiDivider-root"
            />
            <p
              class="MuiTypography-root MuiTypography-body1 MuiTypography-gutterBottom makeStyles-innerDescription-35 css-d3wcwz-MuiTypography-root"
            >
              articlesGuides.tezosindiaFoundationSection
               
              <a
                class="MuiTypography-root MuiTypography-inherit MuiLink-root MuiLink-underlineAlways css-1iwtne7-MuiTypography-root-MuiLink-root"
                href="https://tezosindia.foundation"
              >
                Tezos India Foundation
              </a>
            </p>
            <hr
              class="MuiDivider-root MuiDivider-fullWidth css-9mgopn-MuiDivider-root"
            />
            <ul
              class="MuiList-root MuiList-padding makeStyles-list-36 css-h4y409-MuiList-root"
            >
              <a
                class="MuiButtonBase-root MuiListItem-root MuiListItem-dense MuiListItem-gutters MuiListItem-padding MuiListItem-divider MuiListItem-button css-1qkmnhx-MuiButtonBase-root-MuiListItem-root"
                href="https://medium.com/tezos-india-foundation/factory-contract-in-smartpy-3f3eb1cce69d"
                tabindex="0"
              >
                <div
                  class="MuiListItemAvatar-root css-1e9lk82-MuiListItemAvatar-root"
                >
                  <svg
                    aria-hidden="true"
                    class="MuiSvgIcon-root MuiSvgIcon-fontSizeLarge css-tzssek-MuiSvgIcon-root"
                    focusable="false"
                    viewBox="0 0 72 72"
                  >
                    <rect
                      fill="#1A1919"
                      height="72"
                      rx="4"
                      width="72"
                      x="0"
                      y="0"
                    />
                    <path
                      d="M59 23.453h-1.82c-.675 0-1.63.99-1.63 1.623v22.972c0 .634.955 1.5 1.63 1.5H59V55H42.517v-5.453h3.45V25.4h-.17L37.742 55h-6.237L23.55 25.4h-.201v24.147h3.45V55H13v-5.453h1.767c.728 0 1.683-.865 1.683-1.5v-22.97c0-.634-.955-1.624-1.683-1.624H13V18h17.256l5.666 21.421h.156L41.796 18H59v5.453"
                      fill="#FFF"
                    />
                  </svg>
                </div>
                <div
                  class="MuiListItemText-root MuiListItemText-dense MuiListItemText-multiline css-konndc-MuiListItemText-root"
                >
                  <span
                    class="MuiTypography-root MuiTypography-body2 MuiListItemText-primary css-et1ao3-MuiTypography-root"
                  >
                    Factory Contract in SmartPy
                  </span>
                  <p
                    class="MuiTypography-root MuiTypography-body2 MuiListItemText-secondary css-83ijpv-MuiTypography-root"
                  >
                    Sep 25, 2020 · 2 min read
                  </p>
                </div>
                <span
                  class="MuiTouchRipple-root css-8je8zh-MuiTouchRipple-root"
                />
              </a>
              <a
                class="MuiButtonBase-root MuiListItem-root MuiListItem-dense MuiListItem-gutters MuiListItem-padding MuiListItem-divider MuiListItem-button css-1qkmnhx-MuiButtonBase-root-MuiListItem-root"
                href="https://medium.com/tezos-india-foundation/creating-a-shopping-dapp-with-react-js-and-thanos-wallet-67decaabaf0a"
                tabindex="0"
              >
                <div
                  class="MuiListItemAvatar-root css-1e9lk82-MuiListItemAvatar-root"
                >
                  <svg
                    aria-hidden="true"
                    class="MuiSvgIcon-root MuiSvgIcon-fontSizeLarge css-tzssek-MuiSvgIcon-root"
                    focusable="false"
                    viewBox="0 0 72 72"
                  >
                    <rect
                      fill="#1A1919"
                      height="72"
                      rx="4"
                      width="72"
                      x="0"
                      y="0"
                    />
                    <path
                      d="M59 23.453h-1.82c-.675 0-1.63.99-1.63 1.623v22.972c0 .634.955 1.5 1.63 1.5H59V55H42.517v-5.453h3.45V25.4h-.17L37.742 55h-6.237L23.55 25.4h-.201v24.147h3.45V55H13v-5.453h1.767c.728 0 1.683-.865 1.683-1.5v-22.97c0-.634-.955-1.624-1.683-1.624H13V18h17.256l5.666 21.421h.156L41.796 18H59v5.453"
                      fill="#FFF"
                    />
                  </svg>
                </div>
                <div
                  class="MuiListItemText-root MuiListItemText-dense MuiListItemText-multiline css-konndc-MuiListItemText-root"
                >
                  <span
                    class="MuiTypography-root MuiTypography-body2 MuiListItemText-primary css-et1ao3-MuiTypography-root"
                  >
                    Creating a Shopping Dapp with React.js and Temple Wallet
                  </span>
                  <p
                    class="MuiTypography-root MuiTypography-body2 MuiListItemText-secondary css-83ijpv-MuiTypography-root"
                  >
                    Jul 29, 2020 · 4 min read
                  </p>
                </div>
                <span
                  class="MuiTouchRipple-root css-8je8zh-MuiTouchRipple-root"
                />
              </a>
              <a
                class="MuiButtonBase-root MuiListItem-root MuiListItem-dense MuiListItem-gutters MuiListItem-padding MuiListItem-divider MuiListItem-button css-1qkmnhx-MuiButtonBase-root-MuiListItem-root"
                href="https://medium.com/tezos-india-foundation/inter-contract-calling-in-smartpy-4e91dc7814bd"
                tabindex="0"
              >
                <div
                  class="MuiListItemAvatar-root css-1e9lk82-MuiListItemAvatar-root"
                >
                  <svg
                    aria-hidden="true"
                    class="MuiSvgIcon-root MuiSvgIcon-fontSizeLarge css-tzssek-MuiSvgIcon-root"
                    focusable="false"
                    viewBox="0 0 72 72"
                  >
                    <rect
                      fill="#1A1919"
                      height="72"
                      rx="4"
                      width="72"
                      x="0"
                      y="0"
                    />
                    <path
                      d="M59 23.453h-1.82c-.675 0-1.63.99-1.63 1.623v22.972c0 .634.955 1.5 1.63 1.5H59V55H42.517v-5.453h3.45V25.4h-.17L37.742 55h-6.237L23.55 25.4h-.201v24.147h3.45V55H13v-5.453h1.767c.728 0 1.683-.865 1.683-1.5v-22.97c0-.634-.955-1.624-1.683-1.624H13V18h17.256l5.666 21.421h.156L41.796 18H59v5.453"
                      fill="#FFF"
                    />
                  </svg>
                </div>
                <div
                  class="MuiListItemText-root MuiListItemText-dense MuiListItemText-multiline css-konndc-MuiListItemText-root"
                >
                  <span
                    class="MuiTypography-root MuiTypography-body2 MuiListItemText-primary css-et1ao3-MuiTypography-root"
                  >
                    Inter-Contract Calling in SmartPy.
                  </span>
                  <p
                    class="MuiTypography-root MuiTypography-body2 MuiListItemText-secondary css-83ijpv-MuiTypography-root"
                  >
                    May 25, 2020 · 3 min read
                  </p>
                </div>
                <span
                  class="MuiTouchRipple-root css-8je8zh-MuiTouchRipple-root"
                />
              </a>
            </ul>
            <hr
              class="MuiDivider-root MuiDivider-fullWidth css-9mgopn-MuiDivider-root"
            />
            <p
              class="MuiTypography-root MuiTypography-body1 MuiTypography-gutterBottom makeStyles-innerDescription-35 css-d3wcwz-MuiTypography-root"
            >
              articlesGuides.blockmaticsSection
               
              <a
                class="MuiTypography-root MuiTypography-inherit MuiLink-root MuiLink-underlineAlways css-1iwtne7-MuiTypography-root-MuiLink-root"
                href="https://blockmatics.io/"
              >
                Blockmatics
              </a>
            </p>
            <hr
              class="MuiDivider-root MuiDivider-fullWidth css-9mgopn-MuiDivider-root"
            />
            <ul
              class="MuiList-root MuiList-padding makeStyles-list-36 css-h4y409-MuiList-root"
            >
              <a
                class="MuiButtonBase-root MuiListItem-root MuiListItem-dense MuiListItem-gutters MuiListItem-padding MuiListItem-divider MuiListItem-button css-1qkmnhx-MuiButtonBase-root-MuiListItem-root"
                href="https://www.youtube.com/watch?v=zXJNFVfSgdU"
                tabindex="0"
              >
                <div
                  class="MuiListItemAvatar-root css-1e9lk82-MuiListItemAvatar-root"
                >
                  <svg
                    aria-hidden="true"
                    class="MuiSvgIcon-root MuiSvgIcon-fontSizeLarge makeStyles-youtubeIcon-37 css-tzssek-MuiSvgIcon-root"
                    data-testid="YouTubeIcon"
                    focusable="false"
                    viewBox="0 0 24 24"
                  >
                    <path
                      d="M10 15l5.19-3L10 9v6m11.56-7.83c.13.47.22 1.1.28 1.9.07.8.1 1.49.1 2.09L22 12c0 2.19-.16 3.8-.44 4.83-.25.9-.83 1.48-1.73 1.73-.47.13-1.33.22-2.65.28-1.3.07-2.49.1-3.59.1L12 19c-4.19 0-6.8-.16-7.83-.44-.9-.25-1.48-.83-1.73-1.73-.13-.47-.22-1.1-.28-1.9-.07-.8-.1-1.49-.1-2.09L2 12c0-2.19.16-3.8.44-4.83.25-.9.83-1.48 1.73-1.73.47-.13 1.33-.22 2.65-.28 1.3-.07 2.49-.1 3.59-.1L12 5c4.19 0 6.8.16 7.83.44.9.25 1.48.83 1.73 1.73z"
                    />
                  </svg>
                </div>
                <div
                  class="MuiListItemText-root MuiListItemText-dense MuiListItemText-multiline css-konndc-MuiListItemText-root"
                >
                  <span
                    class="MuiTypography-root MuiTypography-body2 MuiListItemText-primary css-et1ao3-MuiTypography-root"
                  >
                    SmartPy - An Introduction to the smart contract language for Tezos
                  </span>
                  <p
                    class="MuiTypography-root MuiTypography-body2 MuiListItemText-secondary css-83ijpv-MuiTypography-root"
                  >
                    Aug 8, 2019 · 12 min video
                  </p>
                </div>
                <span
                  class="MuiTouchRipple-root css-8je8zh-MuiTouchRipple-root"
                />
              </a>
              <a
                class="MuiButtonBase-root MuiListItem-root MuiListItem-dense MuiListItem-gutters MuiListItem-padding MuiListItem-divider MuiListItem-button css-1qkmnhx-MuiButtonBase-root-MuiListItem-root"
                href="https://training.blockmatics.io/p/tezos-smartpy-developer-course"
                tabindex="0"
              >
                <div
                  class="MuiListItemAvatar-root css-1e9lk82-MuiListItemAvatar-root"
                >
                  <svg
                    aria-hidden="true"
                    class="MuiSvgIcon-root MuiSvgIcon-fontSizeLarge css-tzssek-MuiSvgIcon-root"
                    data-testid="SchoolIcon"
                    focusable="false"
                    viewBox="0 0 24 24"
                  >
                    <path
                      d="M5 13.18v4L12 21l7-3.82v-4L12 17l-7-3.82zM12 3 1 9l11 6 9-4.91V17h2V9L12 3z"
                    />
                  </svg>
                </div>
                <div
                  class="MuiListItemText-root MuiListItemText-dense css-tlelie-MuiListItemText-root"
                >
                  <span
                    class="MuiTypography-root MuiTypography-body2 MuiListItemText-primary css-et1ao3-MuiTypography-root"
                  >
                    Tezos SmartPy Developer Course
                  </span>
                  <p
                    class="MuiTypography-root MuiTypography-body2 MuiListItemText-secondary css-83ijpv-MuiTypography-root"
                  />
                </div>
                <span
                  class="MuiTouchRipple-root css-8je8zh-MuiTouchRipple-root"
                />
              </a>
              <a
                class="MuiButtonBase-root MuiListItem-root MuiListItem-dense MuiListItem-gutters MuiListItem-padding MuiListItem-divider MuiListItem-button css-1qkmnhx-MuiButtonBase-root-MuiListItem-root"
                href="https://medium.com/@solled/an-escrow-smart-contract-in-smartpy-4ca80a0a28c6"
                tabindex="0"
              >
                <div
                  class="MuiListItemAvatar-root css-1e9lk82-MuiListItemAvatar-root"
                >
                  <svg
                    aria-hidden="true"
                    class="MuiSvgIcon-root MuiSvgIcon-fontSizeLarge css-tzssek-MuiSvgIcon-root"
                    focusable="false"
                    viewBox="0 0 72 72"
                  >
                    <rect
                      fill="#1A1919"
                      height="72"
                      rx="4"
                      width="72"
                      x="0"
                      y="0"
                    />
                    <path
                      d="M59 23.453h-1.82c-.675 0-1.63.99-1.63 1.623v22.972c0 .634.955 1.5 1.63 1.5H59V55H42.517v-5.453h3.45V25.4h-.17L37.742 55h-6.237L23.55 25.4h-.201v24.147h3.45V55H13v-5.453h1.767c.728 0 1.683-.865 1.683-1.5v-22.97c0-.634-.955-1.624-1.683-1.624H13V18h17.256l5.666 21.421h.156L41.796 18H59v5.453"
                      fill="#FFF"
                    />
                  </svg>
                </div>
                <div
                  class="MuiListItemText-root MuiListItemText-dense MuiListItemText-multiline css-konndc-MuiListItemText-root"
                >
                  <span
                    class="MuiTypography-root MuiTypography-body2 MuiListItemText-primary css-et1ao3-MuiTypography-root"
                  >
                    An Escrow Smart Contract in SmartPy
                  </span>
                  <p
                    class="MuiTypography-root MuiTypography-body2 MuiListItemText-secondary css-83ijpv-MuiTypography-root"
                  >
                    Aug 26, 2019 · 3 min read
                  </p>
                </div>
                <span
                  class="MuiTouchRipple-root css-8je8zh-MuiTouchRipple-root"
                />
              </a>
            </ul>
            <hr
              class="MuiDivider-root MuiDivider-fullWidth css-9mgopn-MuiDivider-root"
            />
            <p
              class="MuiTypography-root MuiTypography-body1 MuiTypography-gutterBottom makeStyles-innerDescription-35 css-d3wcwz-MuiTypography-root"
            >
              articlesGuides.luizMilfontSection
               
              <a
                class="MuiTypography-root MuiTypography-inherit MuiLink-root MuiLink-underlineAlways css-1iwtne7-MuiTypography-root-MuiLink-root"
                href="https://medium.com/@lmilfont"
              >
                Luiz Milfont
              </a>
            </p>
            <hr
              class="MuiDivider-root MuiDivider-fullWidth css-9mgopn-MuiDivider-root"
            />
            <ul
              class="MuiList-root MuiList-padding makeStyles-list-36 css-h4y409-MuiList-root"
            >
              <a
                class="MuiButtonBase-root MuiListItem-root MuiListItem-dense MuiListItem-gutters MuiListItem-padding MuiListItem-divider MuiListItem-button css-1qkmnhx-MuiButtonBase-root-MuiListItem-root"
                href="https://medium.com/better-programming/how-to-write-smart-contracts-for-blockchain-using-python-8f645d485bf7"
                tabindex="0"
              >
                <div
                  class="MuiListItemAvatar-root css-1e9lk82-MuiListItemAvatar-root"
                >
                  <svg
                    aria-hidden="true"
                    class="MuiSvgIcon-root MuiSvgIcon-fontSizeLarge css-tzssek-MuiSvgIcon-root"
                    focusable="false"
                    viewBox="0 0 72 72"
                  >
                    <rect
                      fill="#1A1919"
                      height="72"
                      rx="4"
                      width="72"
                      x="0"
                      y="0"
                    />
                    <path
                      d="M59 23.453h-1.82c-.675 0-1.63.99-1.63 1.623v22.972c0 .634.955 1.5 1.63 1.5H59V55H42.517v-5.453h3.45V25.4h-.17L37.742 55h-6.237L23.55 25.4h-.201v24.147h3.45V55H13v-5.453h1.767c.728 0 1.683-.865 1.683-1.5v-22.97c0-.634-.955-1.624-1.683-1.624H13V18h17.256l5.666 21.421h.156L41.796 18H59v5.453"
                      fill="#FFF"
                    />
                  </svg>
                </div>
                <div
                  class="MuiListItemText-root MuiListItemText-dense MuiListItemText-multiline css-konndc-MuiListItemText-root"
                >
                  <span
                    class="MuiTypography-root MuiTypography-body2 MuiListItemText-primary css-et1ao3-MuiTypography-root"
                  >
                    How To Write Smart Contracts for Blockchain Using Python — Part One
                  </span>
                  <p
                    class="MuiTypography-root MuiTypography-body2 MuiListItemText-secondary css-83ijpv-MuiTypography-root"
                  >
                    Jul 26, 2019 · 8 min read
                  </p>
                </div>
                <span
                  class="MuiTouchRipple-root css-8je8zh-MuiTouchRipple-root"
                />
              </a>
              <a
                class="MuiButtonBase-root MuiListItem-root MuiListItem-dense MuiListItem-gutters MuiListItem-padding MuiListItem-divider MuiListItem-button css-1qkmnhx-MuiButtonBase-root-MuiListItem-root"
                href="https://medium.com/better-programming/how-to-write-smart-contracts-for-blockchain-using-python-part-2-99fc0cd43c37"
                tabindex="0"
              >
                <div
                  class="MuiListItemAvatar-root css-1e9lk82-MuiListItemAvatar-root"
                >
                  <svg
                    aria-hidden="true"
                    class="MuiSvgIcon-root MuiSvgIcon-fontSizeLarge css-tzssek-MuiSvgIcon-root"
                    focusable="false"
                    viewBox="0 0 72 72"
                  >
                    <rect
                      fill="#1A1919"
                      height="72"
                      rx="4"
                      width="72"
                      x="0"
                      y="0"
                    />
                    <path
                      d="M59 23.453h-1.82c-.675 0-1.63.99-1.63 1.623v22.972c0 .634.955 1.5 1.63 1.5H59V55H42.517v-5.453h3.45V25.4h-.17L37.742 55h-6.237L23.55 25.4h-.201v24.147h3.45V55H13v-5.453h1.767c.728 0 1.683-.865 1.683-1.5v-22.97c0-.634-.955-1.624-1.683-1.624H13V18h17.256l5.666 21.421h.156L41.796 18H59v5.453"
                      fill="#FFF"
                    />
                  </svg>
                </div>
                <div
                  class="MuiListItemText-root MuiListItemText-dense MuiListItemText-multiline css-konndc-MuiListItemText-root"
                >
                  <span
                    class="MuiTypography-root MuiTypography-body2 MuiListItemText-primary css-et1ao3-MuiTypography-root"
                  >
                    How To Write Smart Contracts for Blockchain Using Python — Part Two
                  </span>
                  <p
                    class="MuiTypography-root MuiTypography-body2 MuiListItemText-secondary css-83ijpv-MuiTypography-root"
                  >
                    Jul 27, 2019 · 5 min read
                  </p>
                </div>
                <span
                  class="MuiTouchRipple-root css-8je8zh-MuiTouchRipple-root"
                />
              </a>
              <a
                class="MuiButtonBase-root MuiListItem-root MuiListItem-dense MuiListItem-gutters MuiListItem-padding MuiListItem-divider MuiListItem-button css-1qkmnhx-MuiButtonBase-root-MuiListItem-root"
                href="https://medium.com/@lmilfont/how-to-write-smart-contracts-for-blockchain-using-python-part-3-af14e0d72ea8"
                tabindex="0"
              >
                <div
                  class="MuiListItemAvatar-root css-1e9lk82-MuiListItemAvatar-root"
                >
                  <svg
                    aria-hidden="true"
                    class="MuiSvgIcon-root MuiSvgIcon-fontSizeLarge css-tzssek-MuiSvgIcon-root"
                    focusable="false"
                    viewBox="0 0 72 72"
                  >
                    <rect
                      fill="#1A1919"
                      height="72"
                      rx="4"
                      width="72"
                      x="0"
                      y="0"
                    />
                    <path
                      d="M59 23.453h-1.82c-.675 0-1.63.99-1.63 1.623v22.972c0 .634.955 1.5 1.63 1.5H59V55H42.517v-5.453h3.45V25.4h-.17L37.742 55h-6.237L23.55 25.4h-.201v24.147h3.45V55H13v-5.453h1.767c.728 0 1.683-.865 1.683-1.5v-22.97c0-.634-.955-1.624-1.683-1.624H13V18h17.256l5.666 21.421h.156L41.796 18H59v5.453"
                      fill="#FFF"
                    />
                  </svg>
                </div>
                <div
                  class="MuiListItemText-root MuiListItemText-dense MuiListItemText-multiline css-konndc-MuiListItemText-root"
                >
                  <span
                    class="MuiTypography-root MuiTypography-body2 MuiListItemText-primary css-et1ao3-MuiTypography-root"
                  >
                    How to write Smart Contracts for Blockchain using Python (Part 3)
                  </span>
                  <p
                    class="MuiTypography-root MuiTypography-body2 MuiListItemText-secondary css-83ijpv-MuiTypography-root"
                  >
                    Jul 29, 2019 · 4 min read
                  </p>
                </div>
                <span
                  class="MuiTouchRipple-root css-8je8zh-MuiTouchRipple-root"
                />
              </a>
            </ul>
            <hr
              class="MuiDivider-root MuiDivider-fullWidth css-9mgopn-MuiDivider-root"
            />
          </div>
        </div>
      </div>
    </div>
    <div
      class="makeStyles-root-38"
      id="contact"
    >
      <div
        class="MuiGrid-root MuiGrid-container MuiGrid-spacing-xs-undefined css-go2vvz-MuiGrid-root"
      >
        <div
          class="MuiGrid-root MuiGrid-item MuiGrid-grid-xs-11 css-1ghyu43-MuiGrid-root"
        >
          <p
            class="MuiTypography-root MuiTypography-body1 makeStyles-followUsText-42 css-ahj2mt-MuiTypography-root"
          >
            Follow Us
          </p>
          <hr
            class="MuiDivider-root MuiDivider-fullWidth makeStyles-divider-46 css-9mgopn-MuiDivider-root"
          />
          <div
            class="MuiGrid-root MuiGrid-container MuiGrid-spacing-xs-undefined makeStyles-followUsGrid-43 css-go2vvz-MuiGrid-root"
          >
            <div
              class="MuiGrid-root MuiGrid-item MuiGrid-grid-xs-11 MuiGrid-grid-sm-2 css-1qunkth-MuiGrid-root"
            >
              <a
                aria-label="Twitter"
                class="MuiButtonBase-root MuiFab-root makeStyles-fabLabel-45 MuiFab-extended MuiFab-sizeSmall MuiFab-secondary css-ua8y42-MuiButtonBase-root-MuiFab-root"
                href="https://twitter.com/SmartPy_io"
                tabindex="0"
              >
                <svg
                  aria-hidden="true"
                  class="MuiSvgIcon-root MuiSvgIcon-colorPrimary MuiSvgIcon-fontSizeMedium makeStyles-extendedIcon-44 css-ci5apu-MuiSvgIcon-root"
                  data-testid="TwitterIcon"
                  focusable="false"
                  viewBox="0 0 24 24"
                >
                  <path
                    d="M22.46 6c-.77.35-1.6.58-2.46.69.88-.53 1.56-1.37 1.88-2.38-.83.5-1.75.85-2.72 1.05C18.37 4.5 17.26 4 16 4c-2.35 0-4.27 1.92-4.27 4.29 0 .34.04.67.11.98C8.28 9.09 5.11 7.38 3 4.79c-.37.63-.58 1.37-.58 2.15 0 1.49.75 2.81 1.91 3.56-.71 0-1.37-.2-1.95-.5v.03c0 2.08 1.48 3.82 3.44 4.21a4.22 4.22 0 0 1-1.93.07 4.28 4.28 0 0 0 4 2.98 8.521 8.521 0 0 1-5.33 1.84c-.34 0-.68-.02-1.02-.06C3.44 20.29 5.7 21 8.12 21 16 21 20.33 14.46 20.33 8.79c0-.19 0-.37-.01-.56.84-.6 1.56-1.36 2.14-2.23z"
                  />
                </svg>
                Twitter
                <span
                  class="MuiTouchRipple-root css-8je8zh-MuiTouchRipple-root"
                />
              </a>
            </div>
            <div
              class="MuiGrid-root MuiGrid-item MuiGrid-grid-xs-11 MuiGrid-grid-sm-2 css-1qunkth-MuiGrid-root"
            >
              <a
                aria-label="Telegram"
                class="MuiButtonBase-root MuiFab-root makeStyles-fabLabel-45 MuiFab-extended MuiFab-sizeSmall MuiFab-secondary css-ua8y42-MuiButtonBase-root-MuiFab-root"
                href="https://t.me/SmartPy_io"
                tabindex="0"
              >
                <svg
                  aria-hidden="true"
                  class="MuiSvgIcon-root MuiSvgIcon-colorPrimary MuiSvgIcon-fontSizeMedium makeStyles-extendedIcon-44 css-ci5apu-MuiSvgIcon-root"
                  data-testid="TelegramIcon"
                  focusable="false"
                  viewBox="0 0 24 24"
                >
                  <path
                    d="M9.78 18.65l.28-4.23 7.68-6.92c.34-.31-.07-.46-.52-.19L7.74 13.3 3.64 12c-.88-.25-.89-.86.2-1.3l15.97-6.16c.73-.33 1.43.18 1.15 1.3l-2.72 12.81c-.19.91-.74 1.13-1.5.71L12.6 16.3l-1.99 1.93c-.23.23-.42.42-.83.42z"
                  />
                </svg>
                Telegram
                <span
                  class="MuiTouchRipple-root css-8je8zh-MuiTouchRipple-root"
                />
              </a>
            </div>
            <div
              class="MuiGrid-root MuiGrid-item MuiGrid-grid-xs-11 MuiGrid-grid-sm-2 css-1qunkth-MuiGrid-root"
            >
              <a
                aria-label="Medium"
                class="MuiButtonBase-root MuiFab-root makeStyles-fabLabel-45 MuiFab-extended MuiFab-sizeSmall MuiFab-secondary css-ua8y42-MuiButtonBase-root-MuiFab-root"
                href="https://smartpy-io.medium.com"
                tabindex="0"
              >
                <svg
                  aria-hidden="true"
                  class="MuiSvgIcon-root MuiSvgIcon-fontSizeSmall makeStyles-extendedIcon-44 css-ptiqhd-MuiSvgIcon-root"
                  focusable="false"
                  viewBox="0 0 72 72"
                >
                  <rect
                    fill="#1A1919"
                    height="72"
                    rx="4"
                    width="72"
                    x="0"
                    y="0"
                  />
                  <path
                    d="M59 23.453h-1.82c-.675 0-1.63.99-1.63 1.623v22.972c0 .634.955 1.5 1.63 1.5H59V55H42.517v-5.453h3.45V25.4h-.17L37.742 55h-6.237L23.55 25.4h-.201v24.147h3.45V55H13v-5.453h1.767c.728 0 1.683-.865 1.683-1.5v-22.97c0-.634-.955-1.624-1.683-1.624H13V18h17.256l5.666 21.421h.156L41.796 18H59v5.453"
                    fill="#FFF"
                  />
                </svg>
                Medium
                <span
                  class="MuiTouchRipple-root css-8je8zh-MuiTouchRipple-root"
                />
              </a>
            </div>
            <div
              class="MuiGrid-root MuiGrid-item MuiGrid-grid-xs-11 MuiGrid-grid-sm-2 css-1qunkth-MuiGrid-root"
            >
              <a
                aria-label="GitLab"
                class="MuiButtonBase-root MuiFab-root makeStyles-fabLabel-45 MuiFab-extended MuiFab-sizeSmall MuiFab-secondary css-ua8y42-MuiButtonBase-root-MuiFab-root"
                href="https://gitlab.com/SmartPy/smartpy"
                tabindex="0"
              >
                <svg
                  aria-hidden="true"
                  class="MuiSvgIcon-root MuiSvgIcon-fontSizeSmall makeStyles-extendedIcon-44 css-ptiqhd-MuiSvgIcon-root"
                  focusable="false"
                  viewBox="0 0 36 36"
                >
                  <path
                    d="M2 14l9.38 9v-9l-4-12.28c-.205-.632-1.176-.632-1.38 0z"
                    fill="#e24329"
                  />
                  <path
                    d="M34 14l-9.38 9v-9l4-12.28c.205-.632 1.176-.632 1.38 0z"
                    fill="#e24329"
                  />
                  <path
                    d="M18,34.38 3,14 33,14 Z"
                    fill="#e24329"
                  />
                  <path
                    d="M18,34.38 11.38,14 2,14 6,25Z"
                    fill="#fc6d26"
                  />
                  <path
                    d="M18,34.38 24.62,14 34,14 30,25Z"
                    fill="#fc6d26"
                  />
                  <path
                    d="M2 14L.1 20.16c-.18.565 0 1.2.5 1.56l17.42 12.66z"
                    fill="#fca326"
                  />
                  <path
                    d="M34 14l1.9 6.16c.18.565 0 1.2-.5 1.56L18 34.38z"
                    fill="#fca326"
                  />
                </svg>
                GitLab
                <span
                  class="MuiTouchRipple-root css-8je8zh-MuiTouchRipple-root"
                />
              </a>
            </div>
          </div>
          <hr
            class="MuiDivider-root MuiDivider-fullWidth makeStyles-divider-46 css-9mgopn-MuiDivider-root"
          />
        </div>
        <div
          class="MuiGrid-root MuiGrid-item MuiGrid-grid-xs-11 makeStyles-copyrightDiv-41 css-1ghyu43-MuiGrid-root"
        >
          <span
            class="MuiTypography-root MuiTypography-caption MuiTypography-alignJustify css-177wyul-MuiTypography-root"
          >
            Copyright © 2019-2021 Smart Chain Arena LLC. All rights reserved.
          </span>
        </div>
      </div>
      <div
        class="makeStyles-zoomRoot-39"
        role="presentation"
      >
        <button
          aria-label="scroll back to top"
          class="MuiButtonBase-root MuiFab-root MuiFab-circular MuiFab-sizeSmall MuiFab-primary makeStyles-fabToTop-40 css-3cm1w6-MuiButtonBase-root-MuiFab-root"
          style="transform: scale(0); visibility: hidden;"
          tabindex="0"
          type="button"
        >
          <svg
            aria-hidden="true"
            class="MuiSvgIcon-root MuiSvgIcon-fontSizeMedium css-i4bv87-MuiSvgIcon-root"
            data-testid="KeyboardArrowUpIcon"
            focusable="false"
            viewBox="0 0 24 24"
          >
            <path
              d="M7.41 15.41 12 10.83l4.59 4.58L18 14l-6-6-6 6z"
            />
          </svg>
          <span
            class="MuiTouchRipple-root css-8je8zh-MuiTouchRipple-root"
          />
        </button>
      </div>
    </div>
  </div>
</div>
`;
