{
    "TASK_DELAY": 30000,
    "FAILOVER_ON": 2,
    "ALLOWED_BLOCK_AGE": 180000,
    "CONFIG_LOCATION": "/etc/nginx/conf.d/mainnet.conf",
    "RELOAD_NGINX_CMD": "nginx -s reload",
    "NODES": [
        "https://mainnet-rolling.smartpy.io",
        "https://mainnet-rolling2.smartpy.io"
    ]
}
